exploration 16th – Ihina’s experiments with R
…
##Visualising missing data

visdat::data_vis_miss(MessyPenguins)

# A tibble: 2,752 × 4
    rows variable    valueType value
   <int> <chr>       <chr>     <chr>
 1     1 bill_dep    FALSE     FALSE
 2     1 bill_len    FALSE     FALSE
 3     1 body_mass   FALSE     FALSE
 4     1 flipper_len FALSE     FALSE
 5     1 island      FALSE     FALSE
 6     1 sex         FALSE     FALSE
 7     1 species     FALSE     FALSE
 8     1 year        FALSE     FALSE
 9     2 bill_dep    FALSE     FALSE
10     2 bill_len    FALSE     FALSE
# ℹ 2,742 more rows
…
##Mutate data

MessyPenguins_modified2 <- MessyPenguins %>% 
mutate(species = as.factor(species), sex = as.factor(sex), island = as.factor(island)) %>% 
  dplyr::relocate(where(is.factor), .after = species)
MessyPenguins_modified2

# A tibble: 344 × 8
   species island      sex    bill_len bill_dep flipper_len body_mass  year
   <fct>   <fct>       <fct>     <dbl>    <dbl>       <dbl>     <dbl> <dbl>
 1 Adelie  " "         male        391      187         181      3750  2007
 2 Adelie  "Torgersen" female      395      174         186      3800  2007
 3 Adelie  "Torgersen" female      403      180         195      3250  2007
 4 Adelie  "Torgersen" <NA>         NA       NA          NA        NA  2007
 5 Adelie  "Torgersen" female     9990       NA         193      3450  2007
 6 Adelie  "Torgersen" male        393      206         190      3650  2007
 7 Adelie  "Torgersen" female      389      178         181      3625  2007
 8 Adelie  " "         male        392      196         195      4675  2007
 9 Adelie  "Torgersen" <NA>        341      181         193      3475  2007
10 Adelie  "Torgersen" <NA>        420      202         190      4250  2007
# ℹ 334 more rows
…
##Removing missing data

MessyPenguins_modified3 <- MessyPenguins %>% 
naniar::replace_with_na_all(condition =~.x %in% c(" ")) %>% tidyr::drop_na()
MessyPenguins_modified3

# A tibble: 239 × 8
   species island    bill_len bill_dep flipper_len body_mass sex     year
   <chr>   <chr>        <dbl>    <dbl>       <dbl>     <dbl> <chr>  <dbl>
 1 Adelie  Torgersen      395      174         186      3800 female  2007
 2 Adelie  Torgersen      403      180         195      3250 female  2007
 3 Adelie  Torgersen      393      206         190      3650 male    2007
 4 Adelie  Torgersen      389      178         181      3625 female  2007
 5 Adelie  Torgersen      411      176         182      3200 female  2007
 6 Adelie  Torgersen      386      212         191      3800 male    2007
 7 Adelie  Torgersen      366      178         185      3700 female  2007
 8 Adelie  Torgersen      387      190         195      3450 female  2007
 9 Adelie  Torgersen      425      207         197      4500 male    2007
10 Adelie  Torgersen      344      184         184      3325 female  2007
# ℹ 229 more rows
…
